<?xml version="1.0" encoding="utf-8"?>
<!-- Generator: Adobe Illustrator 16.0.0, SVG Export Plug-In . SVG Version: 6.00 Build 0)  -->
<!DOCTYPE svg PUBLIC "-//W3C//DTD SVG 1.1//EN" "http://www.w3.org/Graphics/SVG/1.1/DTD/svg11.dtd">
<svg version="1.1" id="Calque_1" xmlns="http://www.w3.org/2000/svg" xmlns:xlink="http://www.w3.org/1999/xlink" x="0px" y="0px"
	 width="114.5px" height="42.5px" viewBox="0 0 114.5 42.5" enable-background="new 0 0 114.5 42.5" xml:space="preserve">
<g id="XMLID_77_">
	<path id="XMLID_93_" fill="none" d="M60.833,20.207l3.699-1.779h-4.144C60.429,19.115,60.59,19.701,60.833,20.207z"/>
	<path id="XMLID_92_" fill="none" d="M65.947,14.748c-0.161-0.384-0.384-0.708-0.646-0.97c-0.262-0.263-0.566-0.445-0.91-0.566
		c-0.344-0.121-0.688-0.182-1.051-0.182c-0.748,0-1.375,0.262-1.92,0.808c-0.545,0.546-0.849,1.294-0.93,2.264h5.721
		C66.21,15.577,66.109,15.132,65.947,14.748z"/>
	<path id="XMLID_91_" fill="none" d="M48.946,13.251c-2.123,0-3.174,1.436-3.174,4.327c0,1.253,0.303,2.264,0.889,3.053
		c0.586,0.789,1.354,1.172,2.265,1.172c0.889,0,1.638-0.365,2.224-1.112c0.606-0.749,0.89-1.698,0.89-2.891
		C52.04,14.768,51.008,13.251,48.946,13.251z"/>
	<rect id="XMLID_90_" x="4.209" y="5.57" width="3.942" height="18.861"/>
	<path id="XMLID_89_" d="M20.887,11.291c-0.404-0.404-0.89-0.687-1.456-0.89c-0.566-0.202-1.193-0.303-1.839-0.303
		c-1.132,0-2.062,0.202-2.79,0.606c-0.728,0.405-1.294,1.011-1.738,1.799v-2.042H9.546v13.99h3.679v-8.005
		c0-2.143,0.95-3.215,2.871-3.215c0.869,0,1.496,0.183,1.839,0.566c0.364,0.384,0.545,1.112,0.545,2.184v8.47h3.72v-9.683
		c0-0.749-0.122-1.436-0.364-2.001C21.615,12.18,21.291,11.695,20.887,11.291z"/>
	<path id="XMLID_88_" d="M35.726,18.528c-0.223-0.485-0.586-0.889-1.072-1.213c-0.505-0.324-1.172-0.606-2.001-0.829
		c-0.829-0.242-1.859-0.526-3.072-0.869c-0.749-0.202-1.294-0.424-1.699-0.647c-0.384-0.223-0.586-0.526-0.586-0.91
		c0-0.445,0.202-0.749,0.586-0.93c0.384-0.183,0.971-0.263,1.719-0.263c0.789,0,1.395,0.142,1.779,0.444
		c0.384,0.303,0.626,0.768,0.728,1.416h3.558c-0.101-1.436-0.606-2.567-1.537-3.376c-0.93-0.808-2.405-1.213-4.407-1.213
		c-1.092,0-2.021,0.101-2.79,0.323c-0.748,0.222-1.374,0.505-1.839,0.869c-0.465,0.364-0.829,0.768-1.031,1.254
		c-0.222,0.465-0.323,0.97-0.323,1.516c0,0.586,0.081,1.111,0.242,1.597c0.162,0.465,0.465,0.91,0.93,1.314
		c0.465,0.404,1.112,0.768,1.941,1.091c0.829,0.324,1.941,0.647,3.295,0.95c0.748,0.162,1.314,0.364,1.698,0.606
		c0.364,0.223,0.545,0.607,0.545,1.112c0,0.445-0.242,0.788-0.748,1.011c-0.505,0.222-1.112,0.323-1.799,0.323
		c-0.829,0-1.516-0.182-2.042-0.546c-0.525-0.363-0.789-0.869-0.789-1.536h-3.801c0.021,0.748,0.182,1.415,0.506,2.001
		c0.303,0.606,0.748,1.112,1.334,1.537s1.273,0.748,2.082,0.97c0.809,0.222,1.719,0.344,2.73,0.344c2.042,0,3.598-0.405,4.629-1.233
		c1.052-0.828,1.557-1.859,1.557-3.113C36.049,19.66,35.928,19.014,35.726,18.528z"/>
	<rect id="XMLID_87_" x="37.039" y="5.348" width="3.699" height="3.437"/>
	<rect id="XMLID_86_" x="37.039" y="10.462" width="3.699" height="13.989"/>
	<path id="XMLID_83_" d="M55.536,5.348h-3.639v6.935c-1.051-1.456-2.425-2.184-4.144-2.184c-0.91,0-1.718,0.182-2.426,0.525
		c-0.708,0.344-1.314,0.849-1.799,1.496c-0.485,0.647-0.87,1.416-1.132,2.285c-0.263,0.889-0.384,1.86-0.384,2.911
		c0,1.172,0.142,2.224,0.445,3.154c0.304,0.93,0.728,1.719,1.253,2.365c0.526,0.646,1.172,1.132,1.9,1.476
		c0.748,0.344,1.557,0.506,2.446,0.506c1.738,0,3.032-0.688,3.902-2.082l0.021,1.698l3.557-1.698V5.348L55.536,5.348z M51.15,20.691
		c-0.606,0.748-1.334,1.112-2.224,1.112c-0.931,0-1.678-0.384-2.265-1.172c-0.586-0.789-0.889-1.799-0.889-3.053
		c0-2.871,1.051-4.326,3.174-4.326c2.062,0,3.093,1.516,3.093,4.548C52.04,18.993,51.756,19.963,51.15,20.691z"/>
	<path id="XMLID_80_" d="M60.409,18.427h4.144l5.296-2.547c-0.243-1.557-0.728-2.789-1.476-3.719
		c-1.111-1.375-2.75-2.083-4.912-2.083c-1.072,0-2.042,0.162-2.871,0.505c-0.828,0.324-1.537,0.809-2.122,1.436
		c-0.587,0.627-1.011,1.375-1.314,2.244s-0.445,1.84-0.445,2.931c0,1.84,0.303,3.356,0.93,4.528l3.194-1.537
		C60.59,19.701,60.429,19.115,60.409,18.427z M61.439,13.838c0.546-0.545,1.173-0.809,1.92-0.809c0.364,0,0.708,0.061,1.051,0.182
		c0.344,0.121,0.647,0.303,0.91,0.566c0.262,0.263,0.485,0.586,0.647,0.971c0.162,0.384,0.243,0.829,0.263,1.354h-5.722
		C60.59,15.132,60.894,14.384,61.439,13.838z"/>
</g>
<g id="XMLID_62_">
	<polygon id="XMLID_72_" fill="#1B87C9" points="75.227,14.708 73.165,15.698 69.769,29.405 67.181,18.549 59.762,22.086 
		58.205,29.445 56.688,23.542 52.484,25.543 55.9,37.43 60.328,37.43 63.846,22.672 67.424,37.39 71.992,37.369 78.239,14.708 	"/>
	<path id="XMLID_69_" fill="#1B87C9" d="M90.268,22.571c-1.334-1.658-3.295-2.486-5.883-2.466c-1.294,0-2.447,0.202-3.437,0.607
		c-0.99,0.405-1.84,0.97-2.527,1.738c-0.688,0.748-1.213,1.658-1.577,2.709c-0.364,1.05-0.545,2.224-0.526,3.518
		c0.021,6.085,2.831,9.138,8.43,9.117c1.798,0,3.335-0.485,4.629-1.415c1.294-0.93,2.203-2.265,2.708-4.003l-4.568,0.021
		c-0.162,0.587-0.506,1.051-1.072,1.395c-0.566,0.323-1.193,0.505-1.92,0.505c-1.092,0-1.981-0.364-2.648-1.112
		c-0.667-0.748-1.052-1.759-1.111-3.032l11.563-0.041C92.269,26.716,91.602,24.229,90.268,22.571z M80.847,27.322
		c0.082-1.153,0.445-2.062,1.092-2.709s1.416-0.971,2.304-0.99c0.424,0,0.849,0.061,1.254,0.222
		c0.404,0.142,0.768,0.364,1.092,0.688c0.322,0.303,0.585,0.688,0.767,1.153c0.202,0.464,0.304,1.01,0.324,1.617L80.847,27.322z"/>
	<path id="XMLID_66_" fill="#1B87C9" d="M109.412,25.179c-0.304-1.051-0.768-1.961-1.354-2.75c-0.586-0.767-1.314-1.374-2.163-1.779
		c-0.849-0.424-1.819-0.626-2.912-0.626c-2.062,0-3.719,0.889-4.973,2.648l-0.04-8.329l-4.367,0.02l0.081,22.924l4.266-0.021
		l0.021-2.041c1.031,1.657,2.586,2.486,4.689,2.466c1.051,0,2.021-0.223,2.912-0.626c0.889-0.404,1.657-1.011,2.304-1.779
		c0.626-0.768,1.132-1.719,1.496-2.831c0.364-1.111,0.545-2.385,0.525-3.78C109.876,27.403,109.715,26.23,109.412,25.179z
		 M104.337,32.659c-0.707,0.95-1.616,1.416-2.729,1.436c-1.072,0-1.961-0.444-2.689-1.314c-0.728-0.889-1.092-2.041-1.092-3.477
		c-0.02-3.639,1.213-5.458,3.7-5.478c2.547,0,3.821,1.718,3.841,5.175C105.389,30.496,105.045,31.709,104.337,32.659z"/>
	<polygon id="XMLID_65_" fill="#1B87C9" points="73.165,15.698 75.227,14.708 73.408,14.728 	"/>
</g>
</svg>
